4,1,1,1,1,1,1,1,4,
1,1,1,1,1,1,1,1,1,
1,1,26,19,21,22,15,1,1,
1,1,22,18,21,17,18,1,1,
8,1,26,22,12,18,27,1,1,
1,1,18,15,29,25,20,1,1,
1,1,29,17,17,17,16,1,1,
1,1,1,1,1,1,1,1,1,
4,1,1,1,1,1,1,1,4,
88,257